mail;picture
sylligardakis@gmail.com;files/pictures/picture-1.jpg
nkleopas@gmail.com;files/pictures/picture-9.png
s.kouzof@proxima.gr;files/pictures/picture-15.jpg
velpan@techangel.gr;files/pictures/picture-21.jpg
stratis32@gmail.com;files/pictures/picture-34.png
drupal@lourdas.name;files/pictures/picture-41.png
manwlas@gmail.com;files/pictures/picture-48.gif
fevangelou@gmail.com;files/pictures/picture-50.jpg
gl@cyberpunk.gr;files/pictures/picture-59.png
konstantinos.penlidis@gmail.com;files/pictures/picture-91.gif
chiotis@gmail.com;files/pictures/picture-93.png
a.zochios@gmail.com;files/pictures/picture-100.gif
vourliotis@gmail.com;files/pictures/picture-116.gif
mik@ms-net.gr;files/pictures/picture-123.jpg
plusangel@gmail.com;files/pictures/picture-131.jpg
vang.konst@gmail.com;files/pictures/picture-169.jpg
pvidalis@gmail.com;files/pictures/picture-188.jpg
bullgr@gmail.com;files/pictures/picture-200.gif
jannalexx@yahoo.com;files/pictures/picture-217.png
hamomilaki@yahoo.gr;files/pictures/picture-235.jpg
teragenesis@yahoo.com;files/pictures/picture-238.jpg
stspap@gmail.com;files/pictures/picture-264.jpg
plicatilis@gmail.com;files/pictures/picture-276.png
ioarvanit@gmail.com;files/pictures/picture-293.png
s0cky@hotmail.com;files/pictures/picture-328.jpg
dfotiou@gmail.com;files/pictures/picture-335.jpg
ale3andro@gmail.com;files/pictures/picture-354.jpg
fanist@hol.gr;files/pictures/picture-373.jpg
pariskout@gmail.com;files/pictures/picture-422.jpg
mariakaroutsou@gmail.com;files/pictures/picture-448.jpg
bserem@gmail.com;files/pictures/picture-497.jpg
nikosgiaglis@gmail.com;files/pictures/picture-593.jpg
kidfgrk@hotmail.com;files/pictures/picture-595.jpg
vandrou@gmail.com;files/pictures/picture-608.jpg
entergeozax@hotmail.com;files/pictures/picture-620.jpg
gadala@gadala.gr;files/pictures/picture-828.gif
kongeo@gmail.com;files/pictures/picture-835.jpg
info@cook.gr;files/pictures/picture-836.png
x-origin@hotmail.com;files/pictures/picture-698.jpg
dealsend@gmail.com;files/pictures/picture-850.jpg
webmaster@istosonline.com;files/pictures/picture-863.png
bibakisv@gmail.com;files/pictures/picture-884.jpg
akinagr@gmail.com;files/pictures/picture-873.jpg
xaris.tsimpouris@gmail.com;files/pictures/picture-906.jpg
leukadiotis@yahoo.com;files/pictures/picture-914.jpg
kostas@pointblank.gr;files/pictures/picture-919.png
stelios@pointblank.gr;files/pictures/picture-921.jpg
simtsit@gmail.com;files/pictures/picture-973.jpg
spyros_pa@yahoo.com;files/pictures/picture-983.jpg
apatrinos@gmail.com;files/pictures/picture-986.png
me@theodorosploumis.com;files/pictures/picture-994.png
mitasfleming@yahoo.gr;files/pictures/picture-995.jpg
aprekates@gmail.com;files/pictures/picture-1003.jpg
falegk1@gmail.com;files/pictures/picture-1039.gif
jskourtis@gmail.com;files/pictures/picture-1045.jpg
panisxiros@yahoo.gr;files/pictures/picture-1049.gif
panos@kontopoulos.org;files/pictures/picture-1050.jpg
somniusx@gmail.com;files/pictures/picture-1052.png
sdimitrak@yahoo.gr;files/pictures/picture-1059.jpg
juankatsampirhs@gmail.com;files/pictures/picture-1064.jpg
nikar@gmx.com;files/pictures/picture-1073.png
delimicic@gmail.com;files/pictures/picture-1076.jpg
acrocosm@gmail.com;files/pictures/picture-1083.gif
gpitoulias@gmail.com;files/pictures/picture-1108.png
th.nokas@gmail.com;files/pictures/picture-1138.png
info@netstudio.gr;files/pictures/picture-1139.jpg
bratsaki@gmail.com;files/pictures/picture-1164.png
anastasis.ksouzafeiris@gmail.com;files/pictures/picture-1168.jpg
kwstasm83@yahoo.gr;files/pictures/picture-1169.png
gkastanis.gr@gmail.com;files/pictures/picture-1176.jpg
nevron@hotmail.com;files/pictures/picture-1179.png
ramonesmania_1986@hotmail.com;files/pictures/picture-1181.png
georgemastrokolias@gmail.com;files/pictures/picture-1473.jpg
harrismiri@gmail.com;files/pictures/picture-1575.png
info@e-sepia.gr;files/pictures/picture-1610.png
tdavliakos@gmail.com;files/pictures/picture-1620.jpg
n.charalampidis@netstudio.gr;files/pictures/picture-1636.jpg
makris.emmanuel@gmail.com;files/pictures/picture-1646.jpg
nutritiongallery@live.com;files/pictures/picture-1647.jpg
walkero@gmail.com;files/pictures/picture-1648.jpg
polemarxos7@Hotmail.com;files/pictures/picture-1658.jpg
juda0305@hotmail.com;files/pictures/picture-1673.jpg
eagle.gr@hotmail.com;files/pictures/picture-1690.jpg
dj_king_a@hotmail.com;files/pictures/picture-1694.png
marinoszak@gmail.com;files/pictures/picture-1709.jpg
lydialada@gmail.com;files/pictures/picture-1735.jpg
skanarakis@gmail.com;files/pictures/picture-1739.png
pmpant@gmail.com;files/pictures/picture-1740.jpg
blerinasal@yahoo.gr;files/pictures/picture-1750.jpg
orpapage@yahoo.gr;files/pictures/picture-1754.jpg
gstefanarou@gmail.com;files/pictures/picture-1756.jpg
jim89sa@hotmail.com;files/pictures/picture-1767.jpg
ealevrofas@dibe.gr;files/pictures/picture-1776.png
stathis@minisys.gr;files/pictures/picture-1777.jpg
adamantios13@hotmail.com;files/pictures/picture-1790.jpg
i.th.bourlis@gmail.com;files/pictures/picture-1809.jpg
mlekkou@gmail.com;files/pictures/picture-1810.jpg
konstkosmidis@gmail.com;files/pictures/picture-1811.png
marios__@hotmail.gr;files/pictures/picture-1814.jpg
skoybrina@gmail.com;files/pictures/picture-1820.jpg
micmei@aegean.com.gr;files/pictures/picture-1822.jpg
reg@anditko.com;files/pictures/picture-1824.jpg
mihalistsoukalos@gmail.com;files/pictures/picture-1833.png
everythingcook1@gmail.com;files/pictures/picture-1835.jpg
mmagkanaris@mou.gr;files/pictures/picture-1838.jpg
f_giorgos7@hotmail.com;files/pictures/picture-1844.jpg
csiragaki@frulatti.gr;files/pictures/picture-1855.jpg
loukas.kouk@gmail.com;files/pictures/picture-1859.jpg
kntoutsos@gmail.com;files/pictures/picture-1860.jpg
xwtiko@pathfinder.gr;files/pictures/picture-1871.png
imamgiasin@gmail.com;files/pictures/picture-1872.jpg
strusos@gmail.com;files/pictures/picture-2056.jpg
psamaras1@gmail.com;files/pictures/picture-2229.png
kamnanaer@giochiz.com;files/pictures/picture-2231.gif
bambersor@cashhloanss.com;files/pictures/picture-2240.gif
o2life74@mail.ru;files/pictures/picture-3186.gif
info@webdesignsm.com;files/pictures/picture-3204.jpg
dajia@polyptychon.gr;files/pictures/picture-3205.png
Achilleas90gr@gmail.com;files/pictures/picture-3211.jpg
st025@hotmail.com;files/pictures/picture-3252.jpg
agkou@noesi.gr;files/pictures/picture-3255.jpg
g.hj.hj.ui.5.98.526.4.4@gmail.com;files/pictures/picture-5510.gif
info@sardine.gr;files/pictures/picture-9915.png
eleniaaa@windowslive.com;files/pictures/picture-10072.jpg
micmei@sardine.gr;files/pictures/picture-10456.jpg
axaios@live.com;files/pictures/picture-13746.jpg
mpampiniotis@gmail.com;files/pictures/picture-16749.jpg
estiahome@yahoo.gr;files/pictures/picture-18796.jpg
